<?xml version="1.0" encoding="utf-8"?>
<!-- Generator: Adobe Illustrator 22.0.1, SVG Export Plug-In . SVG Version: 6.00 Build 0)  -->
<svg version="1.1" id="Layer_1" xmlns="http://www.w3.org/2000/svg" xmlns:xlink="http://www.w3.org/1999/xlink" x="0px" y="0px"
	 viewBox="0 0 29.8 34" style="enable-background:new 0 0 29.8 34;" xml:space="preserve">
<style type="text/css">
	.st0{fill:#777777;}
</style>
<path id="Path_6" class="st0" d="M14.9,17c-1.5,0-3-0.4-4.3-1.1c-1.3-0.7-2.4-1.8-3.1-3.1C6.7,11.5,6.4,10,6.4,8.5
	c0-1.5,0.4-3,1.1-4.3c0.7-1.3,1.8-2.4,3.1-3.1C11.9,0.4,13.4,0,14.9,0c1.5,0,3,0.4,4.3,1.1c1.3,0.7,2.4,1.8,3.1,3.1
	C23,5.5,23.4,7,23.4,8.5c0,1.5-0.4,3-1.1,4.3c-0.7,1.3-1.8,2.4-3.1,3.1C17.9,16.6,16.4,17,14.9,17z M20.9,19.1
	c1.6,0,3.1,0.4,4.4,1.2c1.4,0.8,2.5,1.9,3.3,3.3c0.8,1.3,1.2,2.9,1.2,4.4v2.8c0,0.8-0.3,1.7-0.9,2.3c-0.6,0.6-1.4,0.9-2.3,0.9H3.2
	c-0.8,0-1.7-0.3-2.3-0.9C0.3,32.5,0,31.7,0,30.8V28c0-1.6,0.4-3.1,1.2-4.4c0.8-1.4,1.9-2.5,3.3-3.3c1.3-0.8,2.9-1.2,4.4-1.2H10
	c1.5,0.7,3.2,1.1,4.8,1.1c1.7,0,3.3-0.4,4.8-1.1L20.9,19.1z"/>
</svg>
